{
  "ipfs": "/ipfs/QmZENBUa9uhB6ibXh5jivStyr7hJEQfcsv9mXk7MSwNjhE",
  "atomArray": [
    {
      "issuer": { "id": "did:mdip:omni-xs6n-fy2p-qx5z-4ty", "name": "Netki" },
      "atoms": {
        "id": "did:mdip:omni-xcqu-5ykq-qqca-sk8",
        "drivers_license": "RX181787",
        "birth_date": "1982-12-31",
        "last_name": "EMBREY",
        "first_name": "NATHANIEL",
        "age": "40"
      }
    }
  ],
  "incompleteAtomArray": [
    {
      "issuer": { "id": "did:mdip:omni-xs6n-fy2p-qx5z-4ty", "name": "Netki" },
      "atoms": {
        "id": "did:mdip:omni-xcqu-5ykq-qqca-sk8",
        "drivers_license": "RX181787",
        "birth_date": "1982-12-31"
      }
    }
  ],
  "availableMolecules": [
    "QmQnMqYUoQjD24zvAeipxTzWoQjtgbMaDd9StJy7NDktzq",
    "QmUbncgkGTkwxuS9vjgSJDkAyYSTwLAcgmU4Y2WNariPWU",
    "QmQnpnmTXLqRjxQvUExMZWdnpcUjG46AgB8kd2eVEVwg7z"
  ],
  "requiredForLogin": [
    "QmSd2PiwYADGhHbChirJJScY5UnCPEBTqJ2dXfPpfDoiYH",
    "QmaJbdkTbnXjidvto6DAKULNvVXEvR59Tc5uHHjGitSdxR",
    "QmVKr4kLCHYVC3QBxr3UguofCg7YFpcTEeK437PrWjGcwF",
    "QmZb2MKFrapddthqc8YDyj8s5cXhWJ55VDPrXgZ6cuQQ2C",
    "QmS7aaKhmJrCErr4FLod2HMGuraGWV66yEqJ9XtrcZcuUR",
    "QmYayzDxsxQevfGDbnUYzUqdaASdZeDkryFmmVZVzT5Ydz",
    "QmNoR33oq2NjAd7qUrBcKf8GDu6GzD2En9x3tRDQZu8f9e",
    "QmcRbhiwXDrbZZovdWhGhUgQM8DbUtmHnv5Us8LrpNxCmy",
    "QmPCeSszvqs58B6RcrrriCnGrwLPTAq2TQkHBpeVywdH3x",
    "QmQvrjxCHpoNHzNaAU1fNvEq8oogJXUKjKibuMmfBZUDcU"
  ],
  "expiredVP": "QmTgLamEM87mZFSJ5ivXgw2Zq7XXWjvnRQty1zCKFgwXCx",
  "publicKey": "0300cf12ae51dca74362f71b6ce7675a5859044cdb3e11e72e8573756716268c1b",
  "requestorDID": "did:mdip:omni-xcqu-5ykq-qqca-sk8",
  "credential": {
    "@context": ["https://www.w3.org/2018/credentials/v1"],
    "id": "did:mdip:omni-xuep-5y3q-qsdm-tsg",
    "type": ["VerifiableCredential", "general"],
    "issuer": {
      "id": "did:mdip:omni-xuep-5y3q-qsdm-tsg",
      "name": "Alpha stark"
    },
    "issuanceDate": "2023-07-12T16:24:12.788Z",
    "expirationDate": "2024-01-08T16:24:12.788Z",
    "credentialSubject": {
      "id": "did:mdip:omni-xcqu-5ykq-qqca-sk8",
      "schema": null,
      "general": true
    },
    "proof": {
      "type": "EcdsaSecp256k1VerificationKey2019",
      "created": "2023-07-12T16:24:12.788Z",
      "proofPurpose": "assertionMethod",
      "verificationMethod": "mhCgoj9tYVMGBNnJm3nC77zSKEir5LXi6L",
      "jws": "HyPiIAnE43bVX4P2ga3OATrWd9wYuzyZ5R36NbdIpYK9c6uCpHRP0YCPG5Wtbaiga9Zi/NxzdNcb4OUhc4GaoT0="
    }
  }
}
